{
  "nf3": {
    "description_FR": "NF3",
    "description_EN": "NF3",
    "unit": "kg",
    "group": "refrigerant",
    "decomposition": {
      "2015": {
        "total": {
          "total": 16100.0,
          "uncertainty": 0.3
        }
      }
    }
  },
  "r116": {
    "description_FR": "R116",
    "description_EN": "R116",
    "unit": "kg",
    "group": "refrigerant",
    "decomposition": {
      "2015": {
        "total": {
          "total": 11100.0,
          "uncertainty": 0.3
        }
      }
    }
  },
  "r125": {
    "description_FR": "R125",
    "description_EN": "R125",
    "unit": "kg",
    "group": "refrigerant",
    "decomposition": {
      "2015": {
        "total": {
          "total": 3170.0,
          "uncertainty": 0.3
        }
      }
    }
  },
  "r134a": {
    "description_FR": "R134a",
    "description_EN": "R134a",
    "unit": "kg",
    "group": "refrigerant",
    "decomposition": {
      "2015": {
        "total": {
          "total": 1300.0,
          "uncertainty": 0.3
        }
      }
    }
  },
  "r14": {
    "description_FR": "R14",
    "description_EN": "R14",
    "unit": "kg",
    "group": "refrigerant",
    "decomposition": {
      "2015": {
        "total": {
          "total": 6630.0,
          "uncertainty": 0.3
        }
      }
    }
  },
  "r143a": {
    "description_FR": "R143a",
    "description_EN": "R143a",
    "unit": "kg",
    "group": "refrigerant",
    "decomposition": {
      "2015": {
        "total": {
          "total": 4800.0,
          "uncertainty": 0.3
        }
      }
    }
  },
  "r152a": {
    "description_FR": "R152a",
    "description_EN": "R152a",
    "unit": "kg",
    "group": "refrigerant",
    "decomposition": {
      "2015": {
        "total": {
          "total": 138.0,
          "uncertainty": 0.3
        }
      }
    }
  },
  "r218": {
    "description_FR": "R218",
    "description_EN": "R218",
    "unit": "kg",
    "group": "refrigerant",
    "decomposition": {
      "2015": {
        "total": {
          "total": 8900.0,
          "uncertainty": 0.3
        }
      }
    }
  },
  "r227ea": {
    "description_FR": "R227ea",
    "description_EN": "R227ea",
    "unit": "kg",
    "group": "refrigerant",
    "decomposition": {
      "2015": {
        "total": {
          "total": 2640.0,
          "uncertainty": 0.3
        }
      }
    }
  },
  "r23": {
    "description_FR": "R23",
    "description_EN": "R23",
    "unit": "kg",
    "group": "refrigerant",
    "decomposition": {
      "2015": {
        "total": {
          "total": 12400.0,
          "uncertainty": 0.3
        }
      }
    }
  },
  "r318": {
    "description_FR": "R318",
    "description_EN": "R318",
    "unit": "kg",
    "group": "refrigerant",
    "decomposition": {
      "2015": {
        "total": {
          "total": 9540.0,
          "uncertainty": 0.3
        }
      }
    }
  },
  "r32": {
    "description_FR": "R32",
    "description_EN": "R32",
    "unit": "kg",
    "group": "refrigerant",
    "decomposition": {
      "2015": {
        "total": {
          "total": 677.0,
          "uncertainty": 0.3
        }
      }
    }
  },
  "r404a": {
    "description_FR": "R404a",
    "description_EN": "R404a",
    "unit": "kg",
    "group": "refrigerant",
    "decomposition": {
      "2015": {
        "total": {
          "total": 3943.0,
          "uncertainty": 0.3
        }
      }
    }
  },
  "r407a": {
    "description_FR": "R407a",
    "description_EN": "R407a",
    "unit": "kg",
    "group": "refrigerant",
    "decomposition": {
      "2015": {
        "total": {
          "total": 1923.0,
          "uncertainty": 0.3
        }
      }
    }
  },
  "r407c": {
    "description_FR": "R407c",
    "description_EN": "R407c",
    "unit": "kg",
    "group": "refrigerant",
    "decomposition": {
      "2015": {
        "total": {
          "total": 1624.0,
          "uncertainty": 0.3
        }
      }
    }
  },
  "r407f": {
    "description_FR": "R407f",
    "description_EN": "R407f",
    "unit": "kg",
    "group": "refrigerant",
    "decomposition": {
      "2015": {
        "total": {
          "total": 1674.0,
          "uncertainty": 0.3
        }
      }
    }
  },
  "r410a": {
    "description_FR": "R410a",
    "description_EN": "R410a",
    "unit": "kg",
    "group": "refrigerant",
    "decomposition": {
      "2015": {
        "total": {
          "total": 1924.0,
          "uncertainty": 0.3
        }
      }
    }
  },
  "r417a": {
    "description_FR": "R417a",
    "description_EN": "R417a",
    "unit": "kg",
    "group": "refrigerant",
    "decomposition": {
      "2015": {
        "total": {
          "total": 2127.0,
          "uncertainty": 0.3
        }
      }
    }
  },
  "r422a": {
    "description_FR": "R422a",
    "description_EN": "R422a",
    "unit": "kg",
    "group": "refrigerant",
    "decomposition": {
      "2015": {
        "total": {
          "total": 2844.0,
          "uncertainty": 0.3
        }
      }
    }
  },
  "r422d": {
    "description_FR": "R422d",
    "description_EN": "R422d",
    "unit": "kg",
    "group": "refrigerant",
    "decomposition": {
      "2015": {
        "total": {
          "total": 2473.0,
          "uncertainty": 0.3
        }
      }
    }
  },
  "r427a": {
    "description_FR": "R427a",
    "description_EN": "R427a",
    "unit": "kg",
    "group": "refrigerant",
    "decomposition": {
      "2015": {
        "total": {
          "total": 2024.0,
          "uncertainty": 0.3
        }
      }
    }
  },
  "r4310mee": {
    "description_FR": "R4310mee",
    "description_EN": "R4310mee",
    "unit": "kg",
    "group": "refrigerant",
    "decomposition": {
      "2015": {
        "total": {
          "total": 1650.0,
          "uncertainty": 0.3
        }
      }
    }
  },
  "r507": {
    "description_FR": "R507",
    "description_EN": "R507",
    "unit": "kg",
    "group": "refrigerant",
    "decomposition": {
      "2015": {
        "total": {
          "total": 3985.0,
          "uncertainty": 0.3
        }
      }
    }
  },
  "r507a": {
    "description_FR": "R507a",
    "description_EN": "R507a",
    "unit": "kg",
    "group": "refrigerant",
    "decomposition": {
      "2015": {
        "total": {
          "total": 2235.0,
          "uncertainty": 0.3
        }
      }
    }
  },
  "r5114": {
    "description_FR": "R5114",
    "description_EN": "R5114",
    "unit": "kg",
    "group": "refrigerant",
    "decomposition": {
      "2015": {
        "total": {
          "total": 7910.0,
          "uncertainty": 0.3
        }
      }
    }
  },
  "sf6": {
    "description_FR": "SF6",
    "description_EN": "SF6",
    "unit": "kg",
    "group": "refrigerant",
    "decomposition": {
      "2015": {
        "total": {
          "total": 23500.0,
          "uncertainty": 0.3
        }
      }
    }
  },
  "r11": {
    "description_FR": "R11",
    "description_EN": "R11",
    "unit": "kg",
    "group": "refrigerant",
    "decomposition": {
      "2015": {
        "total": {
          "total": 4660.0,
          "uncertainty": 0.3
        }
      }
    }
  },
  "r113": {
    "description_FR": "R113",
    "description_EN": "R113",
    "unit": "kg",
    "group": "refrigerant",
    "decomposition": {
      "2015": {
        "total": {
          "total": 5820.0,
          "uncertainty": 0.3
        }
      }
    }
  },
  "r114": {
    "description_FR": "R114",
    "description_EN": "R114",
    "unit": "kg",
    "group": "refrigerant",
    "decomposition": {
      "2015": {
        "total": {
          "total": 8590.0,
          "uncertainty": 0.3
        }
      }
    }
  },
  "r115": {
    "description_FR": "R115",
    "description_EN": "R115",
    "unit": "kg",
    "group": "refrigerant",
    "decomposition": {
      "2015": {
        "total": {
          "total": 7670.0,
          "uncertainty": 0.3
        }
      }
    }
  },
  "r12": {
    "description_FR": "R12",
    "description_EN": "R12",
    "unit": "kg",
    "group": "refrigerant",
    "decomposition": {
      "2015": {
        "total": {
          "total": 10200.0,
          "uncertainty": 0.3
        }
      }
    }
  },
  "r122": {
    "description_FR": "R122",
    "description_EN": "R122",
    "unit": "kg",
    "group": "refrigerant",
    "decomposition": {
      "2015": {
        "total": {
          "total": 59.0,
          "uncertainty": 0.3
        }
      }
    }
  },
  "r122a": {
    "description_FR": "R122a",
    "description_EN": "R122a",
    "unit": "kg",
    "group": "refrigerant",
    "decomposition": {
      "2015": {
        "total": {
          "total": 258.0,
          "uncertainty": 0.3
        }
      }
    }
  },
  "r123": {
    "description_FR": "R123",
    "description_EN": "R123",
    "unit": "kg",
    "group": "refrigerant",
    "decomposition": {
      "2015": {
        "total": {
          "total": 79.0,
          "uncertainty": 0.3
        }
      }
    }
  },
  "r123a": {
    "description_FR": "R123a",
    "description_EN": "R123a",
    "unit": "kg",
    "group": "refrigerant",
    "decomposition": {
      "2015": {
        "total": {
          "total": 370.0,
          "uncertainty": 0.3
        }
      }
    }
  },
  "r124": {
    "description_FR": "R124",
    "description_EN": "R124",
    "unit": "kg",
    "group": "refrigerant",
    "decomposition": {
      "2015": {
        "total": {
          "total": 527.0,
          "uncertainty": 0.3
        }
      }
    }
  },
  "r13": {
    "description_FR": "R13",
    "description_EN": "R13",
    "unit": "kg",
    "group": "refrigerant",
    "decomposition": {
      "2015": {
        "total": {
          "total": 13900.0,
          "uncertainty": 0.3
        }
      }
    }
  },
  "r132c": {
    "description_FR": "R132c",
    "description_EN": "R132c",
    "unit": "kg",
    "group": "refrigerant",
    "decomposition": {
      "2015": {
        "total": {
          "total": 338.0,
          "uncertainty": 0.3
        }
      }
    }
  },
  "r141b": {
    "description_FR": "R141b",
    "description_EN": "R141b",
    "unit": "kg",
    "group": "refrigerant",
    "decomposition": {
      "2015": {
        "total": {
          "total": 782.0,
          "uncertainty": 0.3
        }
      }
    }
  },
  "r142b": {
    "description_FR": "R142b",
    "description_EN": "R142b",
    "unit": "kg",
    "group": "refrigerant",
    "decomposition": {
      "2015": {
        "total": {
          "total": 1980.0,
          "uncertainty": 0.3
        }
      }
    }
  },
  "r21": {
    "description_FR": "R21",
    "description_EN": "R21",
    "unit": "kg",
    "group": "refrigerant",
    "decomposition": {
      "2015": {
        "total": {
          "total": 148.0,
          "uncertainty": 0.3
        }
      }
    }
  },
  "r22": {
    "description_FR": "R22",
    "description_EN": "R22",
    "unit": "kg",
    "group": "refrigerant",
    "decomposition": {
      "2015": {
        "total": {
          "total": 1760.0,
          "uncertainty": 0.3
        }
      }
    }
  },
  "r225ca": {
    "description_FR": "R225ca",
    "description_EN": "R225ca",
    "unit": "kg",
    "group": "refrigerant",
    "decomposition": {
      "2015": {
        "total": {
          "total": 127.0,
          "uncertainty": 0.3
        }
      }
    }
  },
  "r225cb": {
    "description_FR": "R225cb",
    "description_EN": "R225cb",
    "unit": "kg",
    "group": "refrigerant",
    "decomposition": {
      "2015": {
        "total": {
          "total": 525.0,
          "uncertainty": 0.3
        }
      }
    }
  },
  "r290": {
    "description_FR": "R290",
    "description_EN": "R290",
    "unit": "kg",
    "group": "refrigerant",
    "decomposition": {
      "2014": {
        "total": {
          "total": 3.0,
          "uncertainty": 0.3
        }
      }
    }
  },
  "r401a": {
    "description_FR": "R401a",
    "description_EN": "R401a",
    "unit": "kg",
    "group": "refrigerant",
    "decomposition": {
      "2015": {
        "total": {
          "total": 1130.0,
          "uncertainty": 0.3
        }
      }
    }
  },
  "r408a": {
    "description_FR": "R408a",
    "description_EN": "R408a",
    "unit": "kg",
    "group": "refrigerant",
    "decomposition": {
      "2015": {
        "total": {
          "total": 3257.0,
          "uncertainty": 0.3
        }
      }
    }
  },
  "r502": {
    "description_FR": "R502",
    "description_EN": "R502",
    "unit": "kg",
    "group": "refrigerant",
    "decomposition": {
      "2015": {
        "total": {
          "total": 4786.0,
          "uncertainty": 0.3
        }
      }
    }
  }
}
