# mission;Date de départ;Ville de départ;Pays de départ;Ville de destination;Pays de destination;Mode de déplacement;Nb de personnes dans la voiture;Aller Retour (OUI si identiques, NON si différents);Motif du déplacement (optionnel);Statut de l'agent (optionnel)
1;24/01/2019;Grenoble;France;Lyon Saint-Exupéry;France;bus;;OUI;Colloque-congrès;ITA
1;24/01/2019;Lyon Saint Exupéry;FR;Londres;GB;avion;;OUI;Colloque-congrès;ITA
2;24/01/2019;Grenoble;France;Marseille;France;voiture;4;OUI;Colloque-congrès;ITA
3;29/01/2019;Grenoble;France;Aussois;France;taxi;2;NON;Séminaire;Chercheur.e-EC
4;04/02/2019;Lille;France;Orléans;France;train;;NON;Collaboration;Chercheur.e-EC
5;05/02/2019;Toulouse;France;Berlin;Allemagne;avion;;OUI;Enseignement;Doc-Post doc
5;05/02/2019;Berlin;Allemagne;Delhi;Inde;avion;;OUI;Enseignement;Doc-Post doc
5;05/02/2019;Delhi;Inde;Mumbai;Inde;train;;OUI;Enseignement;Doc-Post doc
6;05/02/2019;Saint-Martin d'Hères;France;Sisteron;France;train;;NON;Visite;ITA
7;05/03/2019;Zurich;Suisse;Venise;Italie;train;;NON;Visite;ITA
8;05/04/2019;Clermont-Ferrand ;FR;Turin;IT;train;;NON;Administration de la recherche;Chercheur.e-EC
9;05/05/2019;Lyon Saint Exupéry;France;Utrecht;Pays-Bas;avion;;NON;Enseignement;Chercheur.e-EC
10;05/06/2019;Seoul;KR ;Manille;PH;avion;;NON;Enseignement;Chercheur.e-EC
11;05/06/2019;Gaborone;Botswana;Yaoundé;Cameroun;avion;;NON;Enseignement;Chercheur.e-EC
12;05/06/2019;Brest;France;Abidjan;Côte d'Ivoire;avion;;NON;Enseignement;Doc-Post doc
13;05/07/2019;Francfort;DE;Nairobi;KE;avion;;OUI;Enseignement;Doc-Post doc
14;05/09/2019;Washington;États-Unis;Hawai ;États-Unis;avion;;OUI;Enseignement;Doc-Post doc
15;05/10/2019;Bordeaux;France;Rio de Janeiro;Brésil;avion;;OUI;Séminaire;Personne invitée
16;06/10/2019;Marseille;France;Los Angeles;États-Unis;avion;;OUI;Enseignement;Doc-Post doc
17;07/10/2019;Genève;Suisse;La Paz;État Plurinational De Bolivie ;avion;;OUI;Enseignement;Doc-Post doc
18;11/02/2019;Paris;France;Christchurch;Nouvelle-Zélande;avion;;OUI;Séminaire;Personne invitée
19;12/02/2019;Munich;Allemagne;Noumea;Nouvelle-Calédonie;avion;;OUI;Séminaire;Personne invitée
20;13/02/2019;Cork;Irlande;Reykjavik;Islande;ferry;;OUI;Enseignement;Chercheur.e-EC