Identifiant	Type	Motorisation	Distance
car1	voiture	essence	1000
car2	voiture	diesel	9000
car3	voiture	GNV	3000
bike1	velo	électrique	2000
bike2	vélo	musculaire	2000
moto1	moto	essence	6000
moto2	moto	essence	5000
scooter1	trotinette	électrique	9000
scooter2	trotinette	electrique	1400