[
  {
    "name": "occigen.cpu",
    "description": "Occigen (CPU)",
    "alpha": 1.45,
    "commissioning.year": 2020,
    "downtime.year": 2023
  },
  {
    "name": "joliotcurieskl.cpu",
    "description": "Joliot-Curie SKL (CPU)",
    "alpha": 2,
    "commissioning.year": 2020,
    "downtime.year": 9999
  },
  {
    "name": "joliotcurierom.cpu",
    "description": "Joliot-Curie ROME (CPU)",
    "alpha": 2,
    "commissioning.year": 2020,
    "downtime.year": 9999
  },
  {
    "name": "jeanzaycsl.cpu",
    "description": "Jean Zay CSL (CPU)",
    "alpha": 2,
    "commissioning.year": 2020,
    "downtime.year": 9999
  },
  {
    "name": "adastragenoa.cpu",
    "description": "Adastra GENOA (CPU)",
    "alpha": 2.4,
    "commissioning.year": 2023,
    "downtime.year": 9999
  },
  {
    "name": "joliotcuriev100.gpu",
    "description": "Joliot-Curie V100 (GPU)",
    "alpha": 1,
    "commissioning.year": 2020,
    "downtime.year": 9999
  },
  {
    "name": "joliotcurieafx64.cpu",
    "description": "Joliot-Curie AFX64 (CPU)",
    "alpha": 1,
    "commissioning.year": 2023,
    "downtime.year": 9999
  },
  {
    "name": "jeanzayv100.gpu",
    "description": "Jean Zay V100 (GPU)",
    "alpha": 1,
    "commissioning.year": 2020,
    "downtime.year": 9999
  },
  {
    "name": "jeanzaya100.gpu",
    "description": "Jean Zay A100 (GPU)",
    "alpha": 2,
    "commissioning.year": 2021,
    "downtime.year": 9999
  },
  {
    "name": "adastrami250x.gpu",
    "description": "Adastra MI250x (GPU)",
    "alpha": 4,
    "commissioning.year": 2022,
    "downtime.year": 9999
  }
]
